 Left R:107 G:91 B:38 Hue: 46 Right R:163 G:32 B:34 Hue: 359
 Left R:104 G:89 B:35 Hue: 46 Right R:163 G:32 B:37 Hue: 357
 Left R:104 G:87 B:35 Hue: 45 Right R:163 G:32 B:34 Hue: 359
 Left R:102 G:87 B:35 Hue: 46 Right R:157 G:34 B:34 Hue: 0
 Left R:104 G:87 B:35 Hue: 45 Right R:146 G:44 B:37 Hue: 3
 Left R:104 G:89 B:35 Hue: 46 Right R:129 G:51 B:34 Hue: 10
 Left R:107 G:91 B:38 Hue: 46 Right R:117 G:63 B:34 Hue: 20
 Left R:110 G:91 B:38 Hue: 44 Right R:106 G:68 B:34 Hue: 28
 Left R:110 G:94 B:38 Hue: 46 Right R:100 G:75 B:34 Hue: 37
 Left R:113 G:96 B:42 Hue: 45 Right R:97 G:78 B:34 Hue: 41
 Left R:116 G:96 B:42 Hue: 43 Right R:100 G:83 B:37 Hue: 43
 Left R:116 G:98 B:46 Hue: 44 Right R:103 G:85 B:41 Hue: 42
 Left R:116 G:98 B:46 Hue: 44 Right R:106 G:90 B:41 Hue: 45
 Left R:119 G:98 B:46 Hue: 42 Right R:109 G:92 B:44 Hue: 44
 Left R:116 G:98 B:46 Hue: 44 Right R:109 G:92 B:44 Hue: 44
 Left R:119 G:98 B:46 Hue: 42 Right R:109 G:92 B:44 Hue: 44
 Left R:113 G:89 B:38 Hue: 40 Right R:109 G:90 B:41 Hue: 43
 Left R:104 G:75 B:31 Hue: 36 Right R:103 G:88 B:41 Hue: 45
 Left R:96 G:48 B:10 Hue: 26 Right R:100 G:85 B:37 Hue: 45
 Left R:110 G:36 B:14 Hue: 13 Right R:109 G:92 B:41 Hue: 45
 Left R:133 G:20 B:14 Hue: 3 Right R:117 G:100 B:48 Hue: 45
 Left R:141 G:13 B:14 Hue: 359 Right R:126 G:105 B:51 Hue: 43
 Left R:147 G:11 B:10 Hue: 0 Right R:126 G:105 B:51 Hue: 43
 Left R:144 G:13 B:14 Hue: 359 Right R:126 G:105 B:51 Hue: 43
 Left R:147 G:11 B:14 Hue: 358 Right R:126 G:102 B:51 Hue: 40
 Left R:144 G:11 B:14 Hue: 358 Right R:126 G:102 B:51 Hue: 40
 Left R:141 G:13 B:14 Hue: 359 Right R:126 G:102 B:51 Hue: 40
 Left R:138 G:18 B:14 Hue: 1 Right R:123 G:100 B:48 Hue: 41
 Left R:127 G:22 B:14 Hue: 4 Right R:117 G:97 B:44 Hue: 43
 Left R:121 G:39 B:21 Hue: 10 Right R:112 G:92 B:41 Hue: 43
 Left R:102 G:39 B:14 Hue: 17 Right R:109 G:88 B:37 Hue: 42
 Left R:93 G:45 B:10 Hue: 25 Right R:106 G:88 B:37 Hue: 44